{
 "SoundBanksInfo": {
  "Platform": "Windows",
  "BasePlatform": "Windows",
  "SchemaVersion": "12",
  "SoundbankVersion": "140",
  "RootPaths": {
   "ProjectRoot": "E:\\shibuya_thrid\\project_zelda\\StylizedVillage_1\\StylizedVillage_1\\StylizedVillage_1_WwiseProject\\",
   "SourceFilesRoot": "E:\\shibuya_thrid\\project_zelda\\StylizedVillage_1\\StylizedVillage_1\\StylizedVillage_1_WwiseProject\\.cache\\Windows\\",
   "SoundBanksRoot": "E:\\shibuya_thrid\\project_zelda\\StylizedVillage_1\\StylizedVillage_1\\StylizedVillage_1_WwiseProject\\GeneratedSoundBanks\\Windows\\",
   "ExternalSourcesInputFile": "",
   "ExternalSourcesOutputRoot": "E:\\shibuya_thrid\\project_zelda\\StylizedVillage_1\\StylizedVillage_1\\StylizedVillage_1_WwiseProject\\GeneratedSoundBanks\\Windows"
  },
  "SoundBanks": [
   {
    "Id": "712897245",
    "GUID": "{1FADD29A-7ECA-451A-BBC9-6DC0383ECC3A}",
    "Language": "SFX",
    "Hash": "2561094818",
    "ObjectPath": "\\SoundBanks\\Default Work Unit\\Mud",
    "ShortName": "Mud",
    "Path": "Mud.bnk",
    "IncludedEvents": [
     {
      "Id": "1247171702",
      "Name": "Play_Swamp__footstep",
      "ObjectPath": "\\Events\\Default Work Unit\\Play_Swamp__footstep",
      "GUID": "{25222188-A0F1-43C3-AD11-DBE33AB7139B}",
      "DurationType": "OneShot",
      "DurationMin": "1.1",
      "DurationMax": "1.3",
      "IncludedMemoryFiles": [
       {
        "Id": "120805727",
        "Language": "SFX",
        "ShortName": "Footsteps\\Mud\\Cha_Footstep_3D_Mud_Medium_4.wav",
        "Path": "SFX\\Footsteps\\Mud\\Cha_Footstep_3D_Mud_Medium_4_10C4C929.wem"
       },
       {
        "Id": "162414375",
        "Language": "SFX",
        "ShortName": "Footsteps\\Mud\\Cha_Footstep_3D_Mud_Medium_7.wav",
        "Path": "SFX\\Footsteps\\Mud\\Cha_Footstep_3D_Mud_Medium_7_10C4C929.wem"
       },
       {
        "Id": "265021882",
        "Language": "SFX",
        "ShortName": "Footsteps\\Mud\\Cha_Footstep_3D_Mud_Small_2.wav",
        "Path": "SFX\\Footsteps\\Mud\\Cha_Footstep_3D_Mud_Small_2_10C4C929.wem"
       },
       {
        "Id": "298043907",
        "Language": "SFX",
        "ShortName": "Footsteps\\Mud\\Cha_Footstep_3D_Mud_Small_3.wav",
        "Path": "SFX\\Footsteps\\Mud\\Cha_Footstep_3D_Mud_Small_3_10C4C929.wem"
       },
       {
        "Id": "335493555",
        "Language": "SFX",
        "ShortName": "Footsteps\\Mud\\Cha_Footstep_3D_Mud_Large_2.wav",
        "Path": "SFX\\Footsteps\\Mud\\Cha_Footstep_3D_Mud_Large_2_10C4C929.wem"
       },
       {
        "Id": "416131546",
        "Language": "SFX",
        "ShortName": "Footsteps\\Mud\\Cha_Footstep_3D_Mud_Small_6.wav",
        "Path": "SFX\\Footsteps\\Mud\\Cha_Footstep_3D_Mud_Small_6_10C4C929.wem"
       },
       {
        "Id": "421050162",
        "Language": "SFX",
        "ShortName": "Footsteps\\Mud\\Cha_Footstep_3D_Mud_Small_1.wav",
        "Path": "SFX\\Footsteps\\Mud\\Cha_Footstep_3D_Mud_Small_1_10C4C929.wem"
       },
       {
        "Id": "422373382",
        "Language": "SFX",
        "ShortName": "Footsteps\\Mud\\Cha_Footstep_3D_Mud_Large_6.wav",
        "Path": "SFX\\Footsteps\\Mud\\Cha_Footstep_3D_Mud_Large_6_10C4C929.wem"
       },
       {
        "Id": "465296459",
        "Language": "SFX",
        "ShortName": "Footsteps\\Mud\\Cha_Footstep_3D_Mud_Large_4.wav",
        "Path": "SFX\\Footsteps\\Mud\\Cha_Footstep_3D_Mud_Large_4_10C4C929.wem"
       },
       {
        "Id": "588120276",
        "Language": "SFX",
        "ShortName": "Footsteps\\Mud\\Cha_Footstep_3D_Mud_Medium_5.wav",
        "Path": "SFX\\Footsteps\\Mud\\Cha_Footstep_3D_Mud_Medium_5_10C4C929.wem"
       },
       {
        "Id": "639377936",
        "Language": "SFX",
        "ShortName": "Footsteps\\Mud\\Cha_Footstep_3D_Mud_Medium_1.wav",
        "Path": "SFX\\Footsteps\\Mud\\Cha_Footstep_3D_Mud_Medium_1_10C4C929.wem"
       },
       {
        "Id": "670815995",
        "Language": "SFX",
        "ShortName": "Footsteps\\Mud\\Cha_Footstep_3D_Mud_Large_5.wav",
        "Path": "SFX\\Footsteps\\Mud\\Cha_Footstep_3D_Mud_Large_5_10C4C929.wem"
       },
       {
        "Id": "707658961",
        "Language": "SFX",
        "ShortName": "Footsteps\\Mud\\Cha_Footstep_3D_Mud_Large_1.wav",
        "Path": "SFX\\Footsteps\\Mud\\Cha_Footstep_3D_Mud_Large_1_10C4C929.wem"
       },
       {
        "Id": "769348043",
        "Language": "SFX",
        "ShortName": "Footsteps\\Mud\\Cha_Footstep_3D_Mud_Large_7.wav",
        "Path": "SFX\\Footsteps\\Mud\\Cha_Footstep_3D_Mud_Large_7_10C4C929.wem"
       },
       {
        "Id": "831302970",
        "Language": "SFX",
        "ShortName": "Footsteps\\Mud\\Cha_Footstep_3D_Mud_Large_3.wav",
        "Path": "SFX\\Footsteps\\Mud\\Cha_Footstep_3D_Mud_Large_3_10C4C929.wem"
       },
       {
        "Id": "855491878",
        "Language": "SFX",
        "ShortName": "Footsteps\\Mud\\Cha_Footstep_3D_Mud_Small_7.wav",
        "Path": "SFX\\Footsteps\\Mud\\Cha_Footstep_3D_Mud_Small_7_10C4C929.wem"
       },
       {
        "Id": "864859209",
        "Language": "SFX",
        "ShortName": "Footsteps\\Mud\\Cha_Footstep_3D_Mud_Small_4.wav",
        "Path": "SFX\\Footsteps\\Mud\\Cha_Footstep_3D_Mud_Small_4_10C4C929.wem"
       },
       {
        "Id": "873467644",
        "Language": "SFX",
        "ShortName": "Footsteps\\Mud\\Cha_Footstep_3D_Mud_Medium_2.wav",
        "Path": "SFX\\Footsteps\\Mud\\Cha_Footstep_3D_Mud_Medium_2_10C4C929.wem"
       },
       {
        "Id": "917337748",
        "Language": "SFX",
        "ShortName": "Footsteps\\Mud\\Cha_Footstep_3D_Mud_Small_5.wav",
        "Path": "SFX\\Footsteps\\Mud\\Cha_Footstep_3D_Mud_Small_5_10C4C929.wem"
       },
       {
        "Id": "1017673955",
        "Language": "SFX",
        "ShortName": "Footsteps\\Mud\\Cha_Footstep_3D_Mud_Medium_6.wav",
        "Path": "SFX\\Footsteps\\Mud\\Cha_Footstep_3D_Mud_Medium_6_10C4C929.wem"
       },
       {
        "Id": "1046908372",
        "Language": "SFX",
        "ShortName": "Footsteps\\Mud\\Cha_Footstep_3D_Mud_Medium_3.wav",
        "Path": "SFX\\Footsteps\\Mud\\Cha_Footstep_3D_Mud_Medium_3_10C4C929.wem"
       },
       {
        "Id": "1060387967",
        "Language": "SFX",
        "ShortName": "Footsteps\\Mud\\Cha_Footstep_3D_Mud_Small_8.wav",
        "Path": "SFX\\Footsteps\\Mud\\Cha_Footstep_3D_Mud_Small_8_10C4C929.wem"
       }
      ]
     }
    ],
    "GameParameters": [
     {
      "Id": "3506469144",
      "Name": "SwampATT4000",
      "ObjectPath": "\\Game Parameters\\Default Work Unit\\SwampATT4000",
      "GUID": "{87C501AB-2742-4800-A6BF-575A4664C8C6}"
     }
    ]
   }
  ]
 }
}