{
 "SoundBanksInfo": {
  "Platform": "Windows",
  "BasePlatform": "Windows",
  "SchemaVersion": "12",
  "SoundbankVersion": "140",
  "RootPaths": {
   "ProjectRoot": "E:\\ue project\\shibuya_moon\\project_zelda\\StylizedVillage_1\\StylizedVillage_1\\StylizedVillage_1_WwiseProject\\",
   "SourceFilesRoot": "E:\\ue project\\shibuya_moon\\project_zelda\\StylizedVillage_1\\StylizedVillage_1\\StylizedVillage_1_WwiseProject\\.cache\\Windows\\",
   "SoundBanksRoot": "E:\\ue project\\shibuya_moon\\project_zelda\\StylizedVillage_1\\StylizedVillage_1\\StylizedVillage_1_WwiseProject\\GeneratedSoundBanks\\Windows\\",
   "ExternalSourcesInputFile": "",
   "ExternalSourcesOutputRoot": "E:\\ue project\\shibuya_moon\\project_zelda\\StylizedVillage_1\\StylizedVillage_1\\StylizedVillage_1_WwiseProject\\GeneratedSoundBanks\\Windows"
  },
  "DialogueEvents": [],
  "StreamedFiles": [],
  "MediaFilesNotInAnyBank": [],
  "SoundBanks": [
   {
    "Id": "1355168291",
    "GUID": "{701ECBBD-9C7B-4030-8CDB-749EE5D1C7B9}",
    "Language": "SFX",
    "Hash": "14432025",
    "ObjectPath": "Init",
    "ShortName": "Init",
    "Path": "Init.bnk",
    "IncludedAuxBusses": [
     {
      "Id": "869772287",
      "Name": "Wood_house",
      "ObjectPath": "\\Master-Mixer Hierarchy\\Default Work Unit\\Master Audio Bus\\Wood_house",
      "GUID": "{E5F48222-EE65-400A-80EE-0523AABA754D}"
     },
     {
      "Id": "3633416828",
      "Name": "Hall",
      "ObjectPath": "\\Master-Mixer Hierarchy\\Default Work Unit\\Master Audio Bus\\2D\\Hall",
      "GUID": "{320A45DA-1AE8-4058-81B0-B6D486A66442}"
     }
    ],
    "StateGroups": [
     {
      "Id": "336034893",
      "Name": "Weather_state",
      "ObjectPath": "\\States\\Default Work Unit\\Weather_state",
      "GUID": "{F02B9156-0213-4F7A-9B17-FE5F607B671E}",
      "States": [
       {
        "Id": "748895195",
        "Name": "None",
        "ObjectPath": "\\States\\Default Work Unit\\Weather_state\\None",
        "GUID": "{4765ED54-8162-4E59-BA25-73D149B4E7C5}"
       },
       {
        "Id": "2043403999",
        "Name": "Rain",
        "ObjectPath": "\\States\\Default Work Unit\\Weather_state\\Rain",
        "GUID": "{BCF303BE-3023-4A4B-B632-B9B4430FB107}"
       },
       {
        "Id": "787898836",
        "Name": "Snow",
        "ObjectPath": "\\States\\Default Work Unit\\Weather_state\\Snow",
        "GUID": "{42250AB2-8BA4-4C75-B252-1F6A56EAC6E6}"
       },
       {
        "Id": "3569642402",
        "Name": "Sunny",
        "ObjectPath": "\\States\\Default Work Unit\\Weather_state\\Sunny",
        "GUID": "{FE2598E8-F0A0-409F-8FF2-9985863DCFEE}"
       }
      ]
     }
    ]
   },
   {
    "Id": "3157003241",
    "GUID": "{BE097E1D-EDB1-4A72-B317-386EFF38675E}",
    "Language": "SFX",
    "Hash": "2712263034",
    "ObjectPath": "\\SoundBanks\\Default Work Unit\\TEST",
    "ShortName": "TEST",
    "Path": "TEST.bnk"
   },
   {
    "Id": "3161908922",
    "GUID": "{9DCA9866-4485-4D81-B277-F1D86DC6C098}",
    "Language": "SFX",
    "Hash": "2492398763",
    "ObjectPath": "\\SoundBanks\\Default Work Unit\\MAIN",
    "ShortName": "MAIN",
    "Path": "MAIN.bnk",
    "IncludedEvents": [
     {
      "Id": "3774194528",
      "Name": "Play_AMB_3D_House_Raindrops",
      "ObjectPath": "\\Events\\Default Work Unit\\Play_AMB_3D_House_Raindrops",
      "GUID": "{D9BFF97D-352A-4F49-BABB-F42C243BA3FA}",
      "MaxAttenuation": "750.",
      "DurationType": "Infinite",
      "IncludedMemoryFiles": [
       {
        "Id": "1046503353",
        "Language": "SFX",
        "ShortName": "AMB\\3D\\AMB_3D_House_Raindrops.wav",
        "Path": "SFX\\AMB\\3D\\AMB_3D_House_Raindrops_F59B94F2.wem"
       }
      ]
     },
     {
      "Id": "3093209662",
      "Name": "Play_Bee",
      "ObjectPath": "\\Events\\Default Work Unit\\Play_Bee",
      "GUID": "{F85FA756-DF1F-4081-882A-8D30753B48FA}",
      "MaxAttenuation": "1500.",
      "DurationType": "Infinite",
      "IncludedMemoryFiles": [
       {
        "Id": "684821202",
        "Language": "SFX",
        "ShortName": "AMB\\3D\\AMB_3D_Sunny_Day_Bee.wav",
        "Path": "SFX\\AMB\\3D\\AMB_3D_Sunny_Day_Bee_CB056212.wem"
       }
      ],
      "DefaultSwitchValue": "{FE2598E8-F0A0-409F-8FF2-9985863DCFEE}",
      "SwitchContainers": [
       {
        "SwitchValue": "{FE2598E8-F0A0-409F-8FF2-9985863DCFEE}",
        "Media": [
         {
          "Id": "684821202"
         }
        ]
       }
      ]
     },
     {
      "Id": "3679851939",
      "Name": "Play_Bonfire",
      "ObjectPath": "\\Events\\Default Work Unit\\Play_Bonfire",
      "GUID": "{86CDCEB6-9613-49D1-BE03-672D9592175C}",
      "MaxAttenuation": "1500.",
      "DurationType": "Infinite",
      "IncludedMemoryFiles": [
       {
        "Id": "148010735",
        "Language": "SFX",
        "ShortName": "AMB\\3D\\AMB_3D_BonFire_Hong.wav",
        "Path": "SFX\\AMB\\3D\\AMB_3D_BonFire_Hong_CB056212.wem"
       },
       {
        "Id": "329557799",
        "Language": "SFX",
        "ShortName": "AMB\\3D\\AMB_3D_BonFire_Staffswirl.wav",
        "Path": "SFX\\AMB\\3D\\AMB_3D_BonFire_Staffswirl_CB056212.wem"
       },
       {
        "Id": "863186120",
        "Language": "SFX",
        "ShortName": "AMB\\3D\\AMB_3D_BonFire_Campfire.wav",
        "Path": "SFX\\AMB\\3D\\AMB_3D_BonFire_Campfire_CB056212.wem"
       }
      ]
     },
     {
      "Id": "3906482375",
      "Name": "Play_DOG_voice",
      "ObjectPath": "\\Events\\Default Work Unit\\Play_DOG_voice",
      "GUID": "{9FA597A2-76F0-4841-A1BE-A8655C9FB332}",
      "MaxAttenuation": "3000.",
      "DurationType": "Infinite",
      "IncludedMemoryFiles": [
       {
        "Id": "37877417",
        "Language": "SFX",
        "ShortName": "SFX\\Animal\\AMB_Animal_3D_Dog_2.wav",
        "Path": "SFX\\SFX\\Animal\\AMB_Animal_3D_Dog_2_DA1DD2F9.wem"
       },
       {
        "Id": "146671246",
        "Language": "SFX",
        "ShortName": "SFX\\Animal\\AMB_Animal_3D_Dog_1.wav",
        "Path": "SFX\\SFX\\Animal\\AMB_Animal_3D_Dog_1_DA1DD2F9.wem"
       },
       {
        "Id": "265711595",
        "Language": "SFX",
        "ShortName": "SFX\\Animal\\AMB_Animal_3D_Dog_5.wav",
        "Path": "SFX\\SFX\\Animal\\AMB_Animal_3D_Dog_5_DA1DD2F9.wem"
       },
       {
        "Id": "277610730",
        "Language": "SFX",
        "ShortName": "SFX\\Animal\\AMB_Animal_3D_Dog_4.wav",
        "Path": "SFX\\SFX\\Animal\\AMB_Animal_3D_Dog_4_DA1DD2F9.wem"
       },
       {
        "Id": "594245215",
        "Language": "SFX",
        "ShortName": "SFX\\Animal\\AMB_Animal_3D_Dog_3.wav",
        "Path": "SFX\\SFX\\Animal\\AMB_Animal_3D_Dog_3_DA1DD2F9.wem"
       },
       {
        "Id": "1035722115",
        "Language": "SFX",
        "ShortName": "SFX\\Animal\\AMB_Animal_3D_Dog_6.wav",
        "Path": "SFX\\SFX\\Animal\\AMB_Animal_3D_Dog_6_DA1DD2F9.wem"
       }
      ]
     },
     {
      "Id": "1498169336",
      "Name": "Play_River",
      "ObjectPath": "\\Events\\Default Work Unit\\Play_River",
      "GUID": "{3D5E1EF2-B2E2-44B6-AFA3-28193AE3278E}",
      "MaxAttenuation": "3000.",
      "DurationType": "Infinite",
      "IncludedMemoryFiles": [
       {
        "Id": "146567382",
        "Language": "SFX",
        "ShortName": "AMB\\3D\\AMB_3D_Day_River.wav",
        "Path": "SFX\\AMB\\3D\\AMB_3D_Day_River_CB056212.wem"
       },
       {
        "Id": "294712505",
        "Language": "SFX",
        "ShortName": "AMB\\3D\\AMB_3D_Day_River.wav",
        "Path": "SFX\\AMB\\3D\\AMB_3D_Day_River_CAAA1FFE.wem"
       },
       {
        "Id": "401689506",
        "Language": "SFX",
        "ShortName": "AMB\\3D\\AMB_3D_Night_River.wav",
        "Path": "SFX\\AMB\\3D\\AMB_3D_Night_River_CAAA1FFE.wem"
       },
       {
        "Id": "518857374",
        "Language": "SFX",
        "ShortName": "AMB\\3D\\AMB_3D_River_RIan.wav",
        "Path": "SFX\\AMB\\3D\\AMB_3D_River_RIan_CB056212.wem"
       },
       {
        "Id": "725070156",
        "Language": "SFX",
        "ShortName": "AMB\\3D\\AMB_3D_Night_River.wav",
        "Path": "SFX\\AMB\\3D\\AMB_3D_Night_River_CB056212.wem"
       },
       {
        "Id": "1046503353",
        "Language": "SFX",
        "ShortName": "AMB\\3D\\AMB_3D_House_Raindrops.wav",
        "Path": "SFX\\AMB\\3D\\AMB_3D_House_Raindrops_F59B94F2.wem"
       }
      ],
      "DefaultSwitchValue": "{4765ED54-8162-4E59-BA25-73D149B4E7C5}",
      "SwitchContainers": [
       {
        "SwitchValue": "{42250AB2-8BA4-4C75-B252-1F6A56EAC6E6}",
        "Media": [
         {
          "Id": "294712505"
         },
         {
          "Id": "401689506"
         }
        ]
       },
       {
        "SwitchValue": "{BCF303BE-3023-4A4B-B632-B9B4430FB107}",
        "Media": [
         {
          "Id": "518857374"
         },
         {
          "Id": "1046503353"
         }
        ]
       },
       {
        "SwitchValue": "{FE2598E8-F0A0-409F-8FF2-9985863DCFEE}",
        "Media": [
         {
          "Id": "146567382"
         },
         {
          "Id": "725070156"
         }
        ]
       }
      ]
     },
     {
      "Id": "1798634167",
      "Name": "Play_Sunny_Bird_1",
      "ObjectPath": "\\Events\\Default Work Unit\\Play_Sunny_Bird_1",
      "GUID": "{8A55932D-D102-4E83-80B5-D08C60201F12}",
      "MaxAttenuation": "1500.",
      "DurationType": "Infinite",
      "IncludedMemoryFiles": [
       {
        "Id": "559627159",
        "Language": "SFX",
        "ShortName": "AMB\\3D\\AMB_3D_Sunny_Day_Bird_1.wav",
        "Path": "SFX\\AMB\\3D\\AMB_3D_Sunny_Day_Bird_1_F69DCCC3.wem"
       },
       {
        "Id": "668471756",
        "Language": "SFX",
        "ShortName": "AMB\\3D\\AMB_3D_Sunny_Night_Bird_1.wav",
        "Path": "SFX\\AMB\\3D\\AMB_3D_Sunny_Night_Bird_1_F69DCCC3.wem"
       }
      ]
     },
     {
      "Id": "1798634164",
      "Name": "Play_Sunny_Bird_2",
      "ObjectPath": "\\Events\\Default Work Unit\\Play_Sunny_Bird_2",
      "GUID": "{7993E73F-EDFB-437D-8BA2-F22AFACCFD59}",
      "MaxAttenuation": "2000.",
      "DurationType": "Infinite",
      "IncludedMemoryFiles": [
       {
        "Id": "261747252",
        "Language": "SFX",
        "ShortName": "AMB\\3D\\AMB_3D_Sunny_Night_Bird_2.wav",
        "Path": "SFX\\AMB\\3D\\AMB_3D_Sunny_Night_Bird_2_F69DCCC3.wem"
       },
       {
        "Id": "1032403147",
        "Language": "SFX",
        "ShortName": "AMB\\3D\\AMB_3D_Sunny_Day_Bird_2.wav",
        "Path": "SFX\\AMB\\3D\\AMB_3D_Sunny_Day_Bird_2_F69DCCC3.wem"
       }
      ]
     },
     {
      "Id": "1798634165",
      "Name": "Play_Sunny_Bird_3",
      "ObjectPath": "\\Events\\Default Work Unit\\Play_Sunny_Bird_3",
      "GUID": "{D6E2EC00-9072-46C6-A594-F99A9785FFA0}",
      "MaxAttenuation": "4000.",
      "DurationType": "Infinite",
      "IncludedMemoryFiles": [
       {
        "Id": "155657965",
        "Language": "SFX",
        "ShortName": "AMB\\3D\\AMB_3D_Sunny_Day_Bird_3.wav",
        "Path": "SFX\\AMB\\3D\\AMB_3D_Sunny_Day_Bird_3_F69DCCC3.wem"
       },
       {
        "Id": "204172330",
        "Language": "SFX",
        "ShortName": "AMB\\3D\\AMB_3D_Sunny_Night_Bird_3.wav",
        "Path": "SFX\\AMB\\3D\\AMB_3D_Sunny_Night_Bird_3_F69DCCC3.wem"
       }
      ]
     },
     {
      "Id": "1798634162",
      "Name": "Play_Sunny_Bird_4",
      "ObjectPath": "\\Events\\Default Work Unit\\Play_Sunny_Bird_4",
      "GUID": "{799E88FD-33E4-477C-B334-B229F3E3FF95}",
      "MaxAttenuation": "2000.",
      "DurationType": "Infinite",
      "IncludedMemoryFiles": [
       {
        "Id": "714431412",
        "Language": "SFX",
        "ShortName": "AMB\\3D\\AMB_3D_Sunny_Night_Bird_4.wav",
        "Path": "SFX\\AMB\\3D\\AMB_3D_Sunny_Night_Bird_4_F69DCCC3.wem"
       },
       {
        "Id": "744723583",
        "Language": "SFX",
        "ShortName": "AMB\\3D\\AMB_3D_Sunny_Day_Bird_4.wav",
        "Path": "SFX\\AMB\\3D\\AMB_3D_Sunny_Day_Bird_4_F69DCCC3.wem"
       }
      ]
     },
     {
      "Id": "1798634163",
      "Name": "Play_Sunny_Bird_5",
      "ObjectPath": "\\Events\\Default Work Unit\\Play_Sunny_Bird_5",
      "GUID": "{F6BBF41F-7791-48ED-A61B-CC3833AD3CFB}",
      "MaxAttenuation": "4000.",
      "DurationType": "Infinite",
      "IncludedMemoryFiles": [
       {
        "Id": "738935118",
        "Language": "SFX",
        "ShortName": "AMB\\3D\\AMB_3D_Sunny_Night_Bird_5.wav",
        "Path": "SFX\\AMB\\3D\\AMB_3D_Sunny_Night_Bird_5_F69DCCC3.wem"
       },
       {
        "Id": "943000475",
        "Language": "SFX",
        "ShortName": "AMB\\3D\\AMB_3D_Sunny_Day_Bird_5.wav",
        "Path": "SFX\\AMB\\3D\\AMB_3D_Sunny_Day_Bird_5_F69DCCC3.wem"
       }
      ]
     },
     {
      "Id": "1798634160",
      "Name": "Play_Sunny_Bird_6",
      "ObjectPath": "\\Events\\Default Work Unit\\Play_Sunny_Bird_6",
      "GUID": "{FD93E2D4-32D4-4D6E-A7BE-4F564D310E4E}",
      "MaxAttenuation": "3000.",
      "DurationType": "Infinite",
      "IncludedMemoryFiles": [
       {
        "Id": "682091770",
        "Language": "SFX",
        "ShortName": "AMB\\3D\\AMB_3D_Sunny_Night_Bird_6.wav",
        "Path": "SFX\\AMB\\3D\\AMB_3D_Sunny_Night_Bird_6_F69DCCC3.wem"
       },
       {
        "Id": "969689923",
        "Language": "SFX",
        "ShortName": "AMB\\3D\\AMB_3D_Sunny_Day_Bird_6.wav",
        "Path": "SFX\\AMB\\3D\\AMB_3D_Sunny_Day_Bird_6_F69DCCC3.wem"
       }
      ]
     },
     {
      "Id": "1798634161",
      "Name": "Play_Sunny_Bird_7",
      "ObjectPath": "\\Events\\Default Work Unit\\Play_Sunny_Bird_7",
      "GUID": "{13FD9AE0-BE49-411B-8289-9C9FB7FFCCE4}",
      "MaxAttenuation": "1000.",
      "DurationType": "Infinite",
      "IncludedMemoryFiles": [
       {
        "Id": "61022047",
        "Language": "SFX",
        "ShortName": "AMB\\3D\\AMB_3D_Sunny_Night_Bird_7.wav",
        "Path": "SFX\\AMB\\3D\\AMB_3D_Sunny_Night_Bird_7_F69DCCC3.wem"
       },
       {
        "Id": "280335315",
        "Language": "SFX",
        "ShortName": "AMB\\3D\\AMB_3D_Sunny_Day_Bird_7.wav",
        "Path": "SFX\\AMB\\3D\\AMB_3D_Sunny_Day_Bird_7_F69DCCC3.wem"
       }
      ]
     },
     {
      "Id": "1798634174",
      "Name": "Play_Sunny_Bird_8",
      "ObjectPath": "\\Events\\Default Work Unit\\Play_Sunny_Bird_8",
      "GUID": "{C799A7BF-2A28-499D-A545-ACF3F6B73B71}",
      "MaxAttenuation": "100.",
      "DurationType": "Infinite",
      "IncludedMemoryFiles": [
       {
        "Id": "131300173",
        "Language": "SFX",
        "ShortName": "AMB\\3D\\AMB_3D_Sunny_Day_Bird_8.wav",
        "Path": "SFX\\AMB\\3D\\AMB_3D_Sunny_Day_Bird_8_F69DCCC3.wem"
       },
       {
        "Id": "983129466",
        "Language": "SFX",
        "ShortName": "AMB\\3D\\AMB_3D_Sunny_Night_Bird_8.wav",
        "Path": "SFX\\AMB\\3D\\AMB_3D_Sunny_Night_Bird_8_F69DCCC3.wem"
       }
      ]
     },
     {
      "Id": "2817600461",
      "Name": "Play_Weather_of_Day",
      "ObjectPath": "\\Events\\Default Work Unit\\Play_Weather_of_Day",
      "GUID": "{44ED0CAC-3DC8-4FF9-A549-292DEAB03896}",
      "DurationType": "Infinite",
      "IncludedMemoryFiles": [
       {
        "Id": "3731833",
        "Language": "SFX",
        "ShortName": "Music\\Snow\\Dmin_70BPM_2-10_Zhoumo_Snow+Night_Serum1.wav",
        "Path": "SFX\\Music\\Snow\\Dmin_70BPM_2-10_Zhoumo_Snow+Night_Serum1_D79FB2B7.wem"
       },
       {
        "Id": "7249415",
        "Language": "SFX",
        "ShortName": "AMB\\2D\\AMB_2D_Snow_Day.wav",
        "Path": "SFX\\AMB\\2D\\AMB_2D_Snow_Day_28AD7FCA.wem"
       },
       {
        "Id": "13878233",
        "Language": "SFX",
        "ShortName": "Music\\Snow\\Dmin_70BPM_2-10_Zhoumo_Snow+Day_Piano.wav",
        "Path": "SFX\\Music\\Snow\\Dmin_70BPM_2-10_Zhoumo_Snow+Day_Piano_D79FB2B7.wem"
       },
       {
        "Id": "80134826",
        "Language": "SFX",
        "ShortName": "Music\\Snow\\Dmin_70BPM_2-10_Zhoumo_Snow_Vinyl.wav",
        "Path": "SFX\\Music\\Snow\\Dmin_70BPM_2-10_Zhoumo_Snow_Vinyl_D79FB2B7.wem"
       },
       {
        "Id": "86316486",
        "Language": "SFX",
        "ShortName": "Music\\Rain\\Dmin_80BPM_2-10_Zhoumo_Rain+Night-Pad.wav",
        "Path": "SFX\\Music\\Rain\\Dmin_80BPM_2-10_Zhoumo_Rain+Night-Pad_D79FB2B7.wem"
       },
       {
        "Id": "98675466",
        "Language": "SFX",
        "ShortName": "Music\\Snuuy\\Dmin_140BPM_2-16_Zhoumo_Sunny+Night_guitar.wav",
        "Path": "SFX\\Music\\Snuuy\\Dmin_140BPM_2-16_Zhoumo_Sunny+Night_guitar_D79FB2B7.wem"
       },
       {
        "Id": "104415928",
        "Language": "SFX",
        "ShortName": "AMB\\3D\\AMB_3D_Wind_6.wav",
        "Path": "SFX\\AMB\\3D\\AMB_3D_Wind_6_6E014694.wem"
       },
       {
        "Id": "178089306",
        "Language": "SFX",
        "ShortName": "AMB\\2D\\AMB_2D_Sunny_NightWind.wav",
        "Path": "SFX\\AMB\\2D\\AMB_2D_Sunny_NightWind_28AD7FCA.wem"
       },
       {
        "Id": "178557589",
        "Language": "SFX",
        "ShortName": "Music\\Rain\\Dmin_80BPM_2-10_Zhoumo_Rain+Night-Piano.wav",
        "Path": "SFX\\Music\\Rain\\Dmin_80BPM_2-10_Zhoumo_Rain+Night-Piano_D79FB2B7.wem"
       },
       {
        "Id": "190567030",
        "Language": "SFX",
        "ShortName": "Music\\Snow\\Dmin_70BPM_2-10_Zhoumo_Snow+Night_Serum3.wav",
        "Path": "SFX\\Music\\Snow\\Dmin_70BPM_2-10_Zhoumo_Snow+Night_Serum3_D79FB2B7.wem"
       },
       {
        "Id": "191330573",
        "Language": "SFX",
        "ShortName": "Music\\Snow\\Dmin_70BPM_2-10_Zhoumo_Snow+Night_Piano.wav",
        "Path": "SFX\\Music\\Snow\\Dmin_70BPM_2-10_Zhoumo_Snow+Night_Piano_D79FB2B7.wem"
       },
       {
        "Id": "210638286",
        "Language": "SFX",
        "ShortName": "AMB\\2D\\AMB_2D_Sunny_Midday.wav",
        "Path": "SFX\\AMB\\2D\\AMB_2D_Sunny_Midday_69408698.wem"
       },
       {
        "Id": "217894294",
        "Language": "SFX",
        "ShortName": "Music\\Snuuy\\Dmin_140BPM_2-16_Zhoumo_Sunny+Night_Synth+Brass+String.wav",
        "Path": "SFX\\Music\\Snuuy\\Dmin_140BPM_2-16_Zhoumo_Sunny+Night_Synth+Brass+String_D79FB2B7.wem"
       },
       {
        "Id": "271879949",
        "Language": "SFX",
        "ShortName": "Music\\Rain\\Dmin_80BPM_2-10_Zhoumo_Rain+Night-Fluto.wav",
        "Path": "SFX\\Music\\Rain\\Dmin_80BPM_2-10_Zhoumo_Rain+Night-Fluto_D79FB2B7.wem"
       },
       {
        "Id": "274177221",
        "Language": "SFX",
        "ShortName": "AMB\\2D\\AMB_2D_Day_Twilight.wav",
        "Path": "SFX\\AMB\\2D\\AMB_2D_Day_Twilight_409D8869.wem"
       },
       {
        "Id": "290154183",
        "Language": "SFX",
        "ShortName": "Music\\Snuuy\\Dmin_120BPM_3-27_Zhoumo_Sunny+Day_Brass.wav",
        "Path": "SFX\\Music\\Snuuy\\Dmin_120BPM_3-27_Zhoumo_Sunny+Day_Brass_D79FB2B7.wem"
       },
       {
        "Id": "297792690",
        "Language": "SFX",
        "ShortName": "AMB\\3D\\AMB_3D_Sunny_Night_Grass.wav",
        "Path": "SFX\\AMB\\3D\\AMB_3D_Sunny_Night_Grass_CB056212.wem"
       },
       {
        "Id": "299807542",
        "Language": "SFX",
        "ShortName": "AMB\\3D\\AMB_3D_Wind_8.wav",
        "Path": "SFX\\AMB\\3D\\AMB_3D_Wind_8_6E014694.wem"
       },
       {
        "Id": "380625336",
        "Language": "SFX",
        "ShortName": "Music\\Snow\\Dmin_70BPM_2-10_Zhoumo_Snow+Night_Drum.wav",
        "Path": "SFX\\Music\\Snow\\Dmin_70BPM_2-10_Zhoumo_Snow+Night_Drum_D79FB2B7.wem"
       },
       {
        "Id": "394036457",
        "Language": "SFX",
        "ShortName": "AMB\\3D\\AMB_3D_Wind_5.wav",
        "Path": "SFX\\AMB\\3D\\AMB_3D_Wind_5_6E014694.wem"
       },
       {
        "Id": "422822452",
        "Language": "SFX",
        "ShortName": "Music\\Snuuy\\Dmin_120BPM_3-27_Zhoumo_Sunny+Day_String2.wav",
        "Path": "SFX\\Music\\Snuuy\\Dmin_120BPM_3-27_Zhoumo_Sunny+Day_String2_D79FB2B7.wem"
       },
       {
        "Id": "444666274",
        "Language": "SFX",
        "ShortName": "AMB\\3D\\AMB_3D_Wind_3.wav",
        "Path": "SFX\\AMB\\3D\\AMB_3D_Wind_3_6E014694.wem"
       },
       {
        "Id": "486350847",
        "Language": "SFX",
        "ShortName": "Music\\Snuuy\\Dmin_120BPM_3-27_Zhoumo_Sunny+Day_Melody.wav",
        "Path": "SFX\\Music\\Snuuy\\Dmin_120BPM_3-27_Zhoumo_Sunny+Day_Melody_D79FB2B7.wem"
       },
       {
        "Id": "519736007",
        "Language": "SFX",
        "ShortName": "Music\\Snow\\Dmin_70BPM_2-10_Zhoumo_Snow+Night_Serum2.wav",
        "Path": "SFX\\Music\\Snow\\Dmin_70BPM_2-10_Zhoumo_Snow+Night_Serum2_D79FB2B7.wem"
       },
       {
        "Id": "551776054",
        "Language": "SFX",
        "ShortName": "Music\\Rain\\Dmin_80BPM_2-10_Zhoumo_Rain+Night-Guitar2.wav",
        "Path": "SFX\\Music\\Rain\\Dmin_80BPM_2-10_Zhoumo_Rain+Night-Guitar2_D79FB2B7.wem"
       },
       {
        "Id": "552436903",
        "Language": "SFX",
        "ShortName": "AMB\\3D\\AMB_3D_Wind_1.wav",
        "Path": "SFX\\AMB\\3D\\AMB_3D_Wind_1_6E014694.wem"
       },
       {
        "Id": "554925241",
        "Language": "SFX",
        "ShortName": "Music\\Snow\\Dmin_70BPM_2-10_Zhoumo_Snow+Day_Serum.wav",
        "Path": "SFX\\Music\\Snow\\Dmin_70BPM_2-10_Zhoumo_Snow+Day_Serum_D79FB2B7.wem"
       },
       {
        "Id": "576155049",
        "Language": "SFX",
        "ShortName": "AMB\\3D\\AMB_3D_Wind_2.wav",
        "Path": "SFX\\AMB\\3D\\AMB_3D_Wind_2_6E014694.wem"
       },
       {
        "Id": "576594007",
        "Language": "SFX",
        "ShortName": "Music\\Snuuy\\Dmin_140BPM_2-16_Zhoumo_Sunny+Night_Synth.wav",
        "Path": "SFX\\Music\\Snuuy\\Dmin_140BPM_2-16_Zhoumo_Sunny+Night_Synth_D79FB2B7.wem"
       },
       {
        "Id": "586330752",
        "Language": "SFX",
        "ShortName": "Music\\Rain\\Dmin_80BPM_2-10_Zhoumo_Rain+Night-Guitar1.wav",
        "Path": "SFX\\Music\\Rain\\Dmin_80BPM_2-10_Zhoumo_Rain+Night-Guitar1_D79FB2B7.wem"
       },
       {
        "Id": "621176872",
        "Language": "SFX",
        "ShortName": "Music\\Snow\\Dmin_70BPM_2-10_Zhoumo_Snow+Night_Bell.wav",
        "Path": "SFX\\Music\\Snow\\Dmin_70BPM_2-10_Zhoumo_Snow+Night_Bell_D79FB2B7.wem"
       },
       {
        "Id": "740740641",
        "Language": "SFX",
        "ShortName": "Music\\Snow\\Dmin_70BPM_2-10_Zhoumo_Snow_Drum.wav",
        "Path": "SFX\\Music\\Snow\\Dmin_70BPM_2-10_Zhoumo_Snow_Drum_D79FB2B7.wem"
       },
       {
        "Id": "816241054",
        "Language": "SFX",
        "ShortName": "Music\\Rain\\Dmin_80BPM_2-10_Zhoumo_Rain+Day.wav",
        "Path": "SFX\\Music\\Rain\\Dmin_80BPM_2-10_Zhoumo_Rain+Day_D79FB2B7.wem"
       },
       {
        "Id": "819374487",
        "Language": "SFX",
        "ShortName": "Music\\Snow\\Dmin_70BPM_2-10_Zhoumo_Snow+Day_Bell.wav",
        "Path": "SFX\\Music\\Snow\\Dmin_70BPM_2-10_Zhoumo_Snow+Day_Bell_D79FB2B7.wem"
       },
       {
        "Id": "872459267",
        "Language": "SFX",
        "ShortName": "Music\\Snuuy\\Dmin_120BPM_3-27_Zhoumo_Sunny+Day_String1.wav",
        "Path": "SFX\\Music\\Snuuy\\Dmin_120BPM_3-27_Zhoumo_Sunny+Day_String1_D79FB2B7.wem"
       },
       {
        "Id": "874317858",
        "Language": "SFX",
        "ShortName": "Music\\Snuuy\\Dmin_120BPM_3-27_Zhoumo_Sunny+Day_Drum+Crash.wav",
        "Path": "SFX\\Music\\Snuuy\\Dmin_120BPM_3-27_Zhoumo_Sunny+Day_Drum+Crash_D79FB2B7.wem"
       },
       {
        "Id": "889293233",
        "Language": "SFX",
        "ShortName": "AMB\\3D\\AMB_3D_Wind_7.wav",
        "Path": "SFX\\AMB\\3D\\AMB_3D_Wind_7_6E014694.wem"
       },
       {
        "Id": "889795431",
        "Language": "SFX",
        "ShortName": "Music\\Snuuy\\Dmin_140BPM_2-16_Zhoumo_Sunny+Night_Piano.wav",
        "Path": "SFX\\Music\\Snuuy\\Dmin_140BPM_2-16_Zhoumo_Sunny+Night_Piano_D79FB2B7.wem"
       },
       {
        "Id": "890462958",
        "Language": "SFX",
        "ShortName": "AMB\\2D\\AMB_2D_Sunny_Morning.wav",
        "Path": "SFX\\AMB\\2D\\AMB_2D_Sunny_Morning_A8C88626.wem"
       },
       {
        "Id": "902543118",
        "Language": "SFX",
        "ShortName": "AMB\\3D\\AMB_3D_Wind_4.wav",
        "Path": "SFX\\AMB\\3D\\AMB_3D_Wind_4_6E014694.wem"
       },
       {
        "Id": "917192942",
        "Language": "SFX",
        "ShortName": "Music\\Rain\\Dmin_80BPM_2-10_Zhoumo_Rain+Night-Bass.wav",
        "Path": "SFX\\Music\\Rain\\Dmin_80BPM_2-10_Zhoumo_Rain+Night-Bass_D79FB2B7.wem"
       },
       {
        "Id": "954257428",
        "Language": "SFX",
        "ShortName": "Music\\Snuuy\\Dmin_140BPM_2-16_Zhoumo_Sunny+Night_Crash.wav",
        "Path": "SFX\\Music\\Snuuy\\Dmin_140BPM_2-16_Zhoumo_Sunny+Night_Crash_D79FB2B7.wem"
       },
       {
        "Id": "958100630",
        "Language": "SFX",
        "ShortName": "AMB\\3D\\AMB_3D_Wind_9.wav",
        "Path": "SFX\\AMB\\3D\\AMB_3D_Wind_9_6E014694.wem"
       },
       {
        "Id": "968017847",
        "Language": "SFX",
        "ShortName": "AMB\\2D\\AMB_2D_Snow_Night.wav",
        "Path": "SFX\\AMB\\2D\\AMB_2D_Snow_Night_28AD7FCA.wem"
       },
       {
        "Id": "972555702",
        "Language": "SFX",
        "ShortName": "AMB\\2D\\AMB_2D_Night_Rain.wav",
        "Path": "SFX\\AMB\\2D\\AMB_2D_Night_Rain_28AD7FCA.wem"
       },
       {
        "Id": "976005722",
        "Language": "SFX",
        "ShortName": "AMB\\2D\\AMB_2D_Day_Rain.wav",
        "Path": "SFX\\AMB\\2D\\AMB_2D_Day_Rain_17A6A517.wem"
       },
       {
        "Id": "1059854450",
        "Language": "SFX",
        "ShortName": "AMB\\3D\\AMB_3D_Sunny_Day_Grass.wav",
        "Path": "SFX\\AMB\\3D\\AMB_3D_Sunny_Day_Grass_CB056212.wem"
       },
       {
        "Id": "1063730698",
        "Language": "SFX",
        "ShortName": "Music\\Snow\\Dmin_70BPM_2-10_Zhoumo_Snow+Night_Guitar1.wav",
        "Path": "SFX\\Music\\Snow\\Dmin_70BPM_2-10_Zhoumo_Snow+Night_Guitar1_D79FB2B7.wem"
       }
      ],
      "SwitchContainers": [
       {
        "SwitchValue": "{42250AB2-8BA4-4C75-B252-1F6A56EAC6E6}",
        "Media": [
         {
          "Id": "7249415"
         },
         {
          "Id": "968017847"
         }
        ]
       },
       {
        "SwitchValue": "{BCF303BE-3023-4A4B-B632-B9B4430FB107}",
        "Media": [
         {
          "Id": "972555702"
         },
         {
          "Id": "976005722"
         }
        ]
       },
       {
        "SwitchValue": "{FE2598E8-F0A0-409F-8FF2-9985863DCFEE}",
        "Media": [
         {
          "Id": "178089306"
         },
         {
          "Id": "210638286"
         },
         {
          "Id": "274177221"
         },
         {
          "Id": "890462958"
         }
        ]
       },
       {
        "SwitchValue": "{BCF303BE-3023-4A4B-B632-B9B4430FB107}",
        "Children": [
         {
          "SwitchValue": "{97FC9EA3-AE72-4476-9166-8A4AFCB13996}",
          "Media": [
           {
            "Id": "86316486"
           },
           {
            "Id": "178557589"
           },
           {
            "Id": "271879949"
           },
           {
            "Id": "551776054"
           },
           {
            "Id": "586330752"
           },
           {
            "Id": "917192942"
           }
          ]
         }
        ]
       },
       {
        "SwitchValue": "{BCF303BE-3023-4A4B-B632-B9B4430FB107}",
        "Children": [
         {
          "SwitchValue": "{E2F8F345-5B91-4C08-97F6-558D93D435C7}",
          "Media": [
           {
            "Id": "816241054"
           }
          ]
         }
        ]
       },
       {
        "SwitchValue": "{42250AB2-8BA4-4C75-B252-1F6A56EAC6E6}",
        "Children": [
         {
          "SwitchValue": "{E2F8F345-5B91-4C08-97F6-558D93D435C7}",
          "Media": [
           {
            "Id": "13878233"
           },
           {
            "Id": "80134826"
           },
           {
            "Id": "554925241"
           },
           {
            "Id": "740740641"
           },
           {
            "Id": "819374487"
           }
          ]
         }
        ]
       },
       {
        "SwitchValue": "{42250AB2-8BA4-4C75-B252-1F6A56EAC6E6}",
        "Children": [
         {
          "SwitchValue": "{97FC9EA3-AE72-4476-9166-8A4AFCB13996}",
          "Media": [
           {
            "Id": "3731833"
           },
           {
            "Id": "80134826"
           },
           {
            "Id": "190567030"
           },
           {
            "Id": "191330573"
           },
           {
            "Id": "380625336"
           },
           {
            "Id": "519736007"
           },
           {
            "Id": "621176872"
           },
           {
            "Id": "740740641"
           },
           {
            "Id": "1063730698"
           }
          ]
         }
        ]
       },
       {
        "SwitchValue": "{FE2598E8-F0A0-409F-8FF2-9985863DCFEE}",
        "Children": [
         {
          "SwitchValue": "{E2F8F345-5B91-4C08-97F6-558D93D435C7}",
          "Media": [
           {
            "Id": "290154183"
           },
           {
            "Id": "422822452"
           },
           {
            "Id": "486350847"
           },
           {
            "Id": "872459267"
           },
           {
            "Id": "874317858"
           }
          ]
         }
        ]
       },
       {
        "SwitchValue": "{FE2598E8-F0A0-409F-8FF2-9985863DCFEE}",
        "Children": [
         {
          "SwitchValue": "{97FC9EA3-AE72-4476-9166-8A4AFCB13996}",
          "Media": [
           {
            "Id": "98675466"
           },
           {
            "Id": "217894294"
           },
           {
            "Id": "576594007"
           },
           {
            "Id": "889795431"
           },
           {
            "Id": "954257428"
           }
          ]
         }
        ]
       }
      ]
     },
     {
      "Id": "2732656050",
      "Name": "Play_Weather_of_Footsteps",
      "ObjectPath": "\\Events\\Default Work Unit\\Play_Weather_of_Footsteps",
      "GUID": "{EA60E6E4-5FF4-40ED-928F-97441DFC4BD0}",
      "DurationType": "OneShot",
      "DurationMin": "0.2",
      "DurationMax": "1.3",
      "IncludedMemoryFiles": [
       {
        "Id": "2973470",
        "Language": "SFX",
        "ShortName": "Footsteps\\Soil\\Cha_Footstep_3D_Soil_9.wav",
        "Path": "SFX\\Footsteps\\Soil\\Cha_Footstep_3D_Soil_9_F7C17863.wem"
       },
       {
        "Id": "30744803",
        "Language": "SFX",
        "ShortName": "Footsteps\\Rock\\Cha_Footstep_3D_Rock_5.wav",
        "Path": "SFX\\Footsteps\\Rock\\Cha_Footstep_3D_Rock_5_10C4C929.wem"
       },
       {
        "Id": "31957574",
        "Language": "SFX",
        "ShortName": "Footsteps\\Soil\\Cha_Footstep_3D_Soil_1.wav",
        "Path": "SFX\\Footsteps\\Soil\\Cha_Footstep_3D_Soil_1_F7C17863.wem"
       },
       {
        "Id": "44927039",
        "Language": "SFX",
        "ShortName": "Footsteps\\Water\\Cha_Footstep_3D_Wet_Water_4.wav",
        "Path": "SFX\\Footsteps\\Water\\Cha_Footstep_3D_Wet_Water_4_10C4C929.wem"
       },
       {
        "Id": "47019750",
        "Language": "SFX",
        "ShortName": "Footsteps\\Water\\Cha_Footstep_3D_Wet_Water_6.wav",
        "Path": "SFX\\Footsteps\\Water\\Cha_Footstep_3D_Wet_Water_6_10C4C929.wem"
       },
       {
        "Id": "67354494",
        "Language": "SFX",
        "ShortName": "Footsteps\\Snow\\Cha_Footstep_3D_Snowfield_5.wav",
        "Path": "SFX\\Footsteps\\Snow\\Cha_Footstep_3D_Snowfield_5_10C4C929.wem"
       },
       {
        "Id": "74700121",
        "Language": "SFX",
        "ShortName": "Footsteps\\Wood\\Cha_Footstep_3D_Wood_Wet_8.wav",
        "Path": "SFX\\Footsteps\\Wood\\Cha_Footstep_3D_Wood_Wet_8_10C4C929.wem"
       },
       {
        "Id": "88480680",
        "Language": "SFX",
        "ShortName": "Footsteps\\Wood\\Cha_Footstep_3D_Wood_1.wav",
        "Path": "SFX\\Footsteps\\Wood\\Cha_Footstep_3D_Wood_1_10C4C929.wem"
       },
       {
        "Id": "88736064",
        "Language": "SFX",
        "ShortName": "Footsteps\\Snow\\Cha_Footstep_3D_Snowfield_7.wav",
        "Path": "SFX\\Footsteps\\Snow\\Cha_Footstep_3D_Snowfield_7_10C4C929.wem"
       },
       {
        "Id": "88856938",
        "Language": "SFX",
        "ShortName": "Footsteps\\Grass\\Cha_Footstep_3D_Grass_4.wav",
        "Path": "SFX\\Footsteps\\Grass\\Cha_Footstep_3D_Grass_4_CC72CEBD.wem"
       },
       {
        "Id": "91485776",
        "Language": "SFX",
        "ShortName": "Footsteps\\Soil\\Cha_Footstep_3D_Soil_8.wav",
        "Path": "SFX\\Footsteps\\Soil\\Cha_Footstep_3D_Soil_8_F7C17863.wem"
       },
       {
        "Id": "93030086",
        "Language": "SFX",
        "ShortName": "Footsteps\\Snow\\Cha_Footstep_3D_Snowfield_3.wav",
        "Path": "SFX\\Footsteps\\Snow\\Cha_Footstep_3D_Snowfield_3_10C4C929.wem"
       },
       {
        "Id": "101885676",
        "Language": "SFX",
        "ShortName": "Footsteps\\Soil\\Cha_Footstep_3D_Soil_4.wav",
        "Path": "SFX\\Footsteps\\Soil\\Cha_Footstep_3D_Soil_4_F7C17863.wem"
       },
       {
        "Id": "120805727",
        "Language": "SFX",
        "ShortName": "Footsteps\\Mud\\Cha_Footstep_3D_Mud_Medium_4.wav",
        "Path": "SFX\\Footsteps\\Mud\\Cha_Footstep_3D_Mud_Medium_4_10C4C929.wem"
       },
       {
        "Id": "140633938",
        "Language": "SFX",
        "ShortName": "Footsteps\\Water\\Cha_Footstep_3D_Wet_Water_3.wav",
        "Path": "SFX\\Footsteps\\Water\\Cha_Footstep_3D_Wet_Water_3_10C4C929.wem"
       },
       {
        "Id": "141654618",
        "Language": "SFX",
        "ShortName": "Footsteps\\Soil\\Cha_Footstep_3D_Soil_6.wav",
        "Path": "SFX\\Footsteps\\Soil\\Cha_Footstep_3D_Soil_6_F7C17863.wem"
       },
       {
        "Id": "142072487",
        "Language": "SFX",
        "ShortName": "Footsteps\\Wood\\Cha_Footstep_3D_Wood_Wet_5.wav",
        "Path": "SFX\\Footsteps\\Wood\\Cha_Footstep_3D_Wood_Wet_5_10C4C929.wem"
       },
       {
        "Id": "143074206",
        "Language": "SFX",
        "ShortName": "Footsteps\\Grass\\Cha_Footstep_3D_Grass_1.wav",
        "Path": "SFX\\Footsteps\\Grass\\Cha_Footstep_3D_Grass_1_CC72CEBD.wem"
       },
       {
        "Id": "150319688",
        "Language": "SFX",
        "ShortName": "Footsteps\\Grass\\Cha_Footstep_3D_Grass_Wet_4.wav",
        "Path": "SFX\\Footsteps\\Grass\\Cha_Footstep_3D_Grass_Wet_4_10C4C929.wem"
       },
       {
        "Id": "161147129",
        "Language": "SFX",
        "ShortName": "Footsteps\\Rock\\Cha_Footstep_3D_Rock_3.wav",
        "Path": "SFX\\Footsteps\\Rock\\Cha_Footstep_3D_Rock_3_10C4C929.wem"
       },
       {
        "Id": "162414375",
        "Language": "SFX",
        "ShortName": "Footsteps\\Mud\\Cha_Footstep_3D_Mud_Medium_7.wav",
        "Path": "SFX\\Footsteps\\Mud\\Cha_Footstep_3D_Mud_Medium_7_10C4C929.wem"
       },
       {
        "Id": "165914578",
        "Language": "SFX",
        "ShortName": "Footsteps\\Grass\\Cha_Footstep_3D_Grass_Wet_6.wav",
        "Path": "SFX\\Footsteps\\Grass\\Cha_Footstep_3D_Grass_Wet_6_10C4C929.wem"
       },
       {
        "Id": "186014928",
        "Language": "SFX",
        "ShortName": "Footsteps\\Wood\\Cha_Footstep_3D_Wood_Wet_2.wav",
        "Path": "SFX\\Footsteps\\Wood\\Cha_Footstep_3D_Wood_Wet_2_10C4C929.wem"
       },
       {
        "Id": "191912322",
        "Language": "SFX",
        "ShortName": "Footsteps\\Rock\\Cha_Footstep_3D_Rock_9.wav",
        "Path": "SFX\\Footsteps\\Rock\\Cha_Footstep_3D_Rock_9_10C4C929.wem"
       },
       {
        "Id": "196878143",
        "Language": "SFX",
        "ShortName": "Footsteps\\Water\\Cha_Footstep_3D_Wet_Water_9.wav",
        "Path": "SFX\\Footsteps\\Water\\Cha_Footstep_3D_Wet_Water_9_10C4C929.wem"
       },
       {
        "Id": "225906957",
        "Language": "SFX",
        "ShortName": "Footsteps\\Wood\\Cha_Footstep_3D_Wood_Wet_1.wav",
        "Path": "SFX\\Footsteps\\Wood\\Cha_Footstep_3D_Wood_Wet_1_10C4C929.wem"
       },
       {
        "Id": "235985635",
        "Language": "SFX",
        "ShortName": "Footsteps\\Wood\\Cha_Footstep_3D_Wood_2.wav",
        "Path": "SFX\\Footsteps\\Wood\\Cha_Footstep_3D_Wood_2_10C4C929.wem"
       },
       {
        "Id": "265021882",
        "Language": "SFX",
        "ShortName": "Footsteps\\Mud\\Cha_Footstep_3D_Mud_Small_2.wav",
        "Path": "SFX\\Footsteps\\Mud\\Cha_Footstep_3D_Mud_Small_2_10C4C929.wem"
       },
       {
        "Id": "275314753",
        "Language": "SFX",
        "ShortName": "Footsteps\\Soil\\Cha_Footstep_3D_Soil_2.wav",
        "Path": "SFX\\Footsteps\\Soil\\Cha_Footstep_3D_Soil_2_F7C17863.wem"
       },
       {
        "Id": "279818021",
        "Language": "SFX",
        "ShortName": "Footsteps\\Rock\\Cha_Footstep_3D_Rock_Wet_4.wav",
        "Path": "SFX\\Footsteps\\Rock\\Cha_Footstep_3D_Rock_Wet_4_10C4C929.wem"
       },
       {
        "Id": "287313070",
        "Language": "SFX",
        "ShortName": "Footsteps\\Water\\Cha_Footstep_3D_Wet_Water_2.wav",
        "Path": "SFX\\Footsteps\\Water\\Cha_Footstep_3D_Wet_Water_2_10C4C929.wem"
       },
       {
        "Id": "298043907",
        "Language": "SFX",
        "ShortName": "Footsteps\\Mud\\Cha_Footstep_3D_Mud_Small_3.wav",
        "Path": "SFX\\Footsteps\\Mud\\Cha_Footstep_3D_Mud_Small_3_10C4C929.wem"
       },
       {
        "Id": "308919095",
        "Language": "SFX",
        "ShortName": "Footsteps\\Snow\\Cha_Footstep_3D_Snowfield_1.wav",
        "Path": "SFX\\Footsteps\\Snow\\Cha_Footstep_3D_Snowfield_1_10C4C929.wem"
       },
       {
        "Id": "319396873",
        "Language": "SFX",
        "ShortName": "Footsteps\\Wood\\Cha_Footstep_3D_Wood_Wet_3.wav",
        "Path": "SFX\\Footsteps\\Wood\\Cha_Footstep_3D_Wood_Wet_3_10C4C929.wem"
       },
       {
        "Id": "335493555",
        "Language": "SFX",
        "ShortName": "Footsteps\\Mud\\Cha_Footstep_3D_Mud_Large_2.wav",
        "Path": "SFX\\Footsteps\\Mud\\Cha_Footstep_3D_Mud_Large_2_10C4C929.wem"
       },
       {
        "Id": "364900233",
        "Language": "SFX",
        "ShortName": "Footsteps\\Rock\\Cha_Footstep_3D_Rock_6.wav",
        "Path": "SFX\\Footsteps\\Rock\\Cha_Footstep_3D_Rock_6_10C4C929.wem"
       },
       {
        "Id": "365286474",
        "Language": "SFX",
        "ShortName": "Footsteps\\Grass\\Cha_Footstep_3D_Grass_Wet_5.wav",
        "Path": "SFX\\Footsteps\\Grass\\Cha_Footstep_3D_Grass_Wet_5_10C4C929.wem"
       },
       {
        "Id": "377019966",
        "Language": "SFX",
        "ShortName": "Footsteps\\Grass\\Cha_Footstep_3D_Grass_5.wav",
        "Path": "SFX\\Footsteps\\Grass\\Cha_Footstep_3D_Grass_5_CC72CEBD.wem"
       },
       {
        "Id": "380468292",
        "Language": "SFX",
        "ShortName": "Footsteps\\Wood\\Cha_Footstep_3D_Wood_6.wav",
        "Path": "SFX\\Footsteps\\Wood\\Cha_Footstep_3D_Wood_6_10C4C929.wem"
       },
       {
        "Id": "411688919",
        "Language": "SFX",
        "ShortName": "Footsteps\\Water\\Cha_Footstep_3D_Wet_Water_1.wav",
        "Path": "SFX\\Footsteps\\Water\\Cha_Footstep_3D_Wet_Water_1_10C4C929.wem"
       },
       {
        "Id": "416131546",
        "Language": "SFX",
        "ShortName": "Footsteps\\Mud\\Cha_Footstep_3D_Mud_Small_6.wav",
        "Path": "SFX\\Footsteps\\Mud\\Cha_Footstep_3D_Mud_Small_6_10C4C929.wem"
       },
       {
        "Id": "421050162",
        "Language": "SFX",
        "ShortName": "Footsteps\\Mud\\Cha_Footstep_3D_Mud_Small_1.wav",
        "Path": "SFX\\Footsteps\\Mud\\Cha_Footstep_3D_Mud_Small_1_10C4C929.wem"
       },
       {
        "Id": "422373382",
        "Language": "SFX",
        "ShortName": "Footsteps\\Mud\\Cha_Footstep_3D_Mud_Large_6.wav",
        "Path": "SFX\\Footsteps\\Mud\\Cha_Footstep_3D_Mud_Large_6_10C4C929.wem"
       },
       {
        "Id": "442835647",
        "Language": "SFX",
        "ShortName": "Footsteps\\Snow\\Cha_Footstep_3D_Snowfield_9.wav",
        "Path": "SFX\\Footsteps\\Snow\\Cha_Footstep_3D_Snowfield_9_10C4C929.wem"
       },
       {
        "Id": "461827102",
        "Language": "SFX",
        "ShortName": "Footsteps\\Wood\\Cha_Footstep_3D_Wood_Wet_7.wav",
        "Path": "SFX\\Footsteps\\Wood\\Cha_Footstep_3D_Wood_Wet_7_10C4C929.wem"
       },
       {
        "Id": "465296459",
        "Language": "SFX",
        "ShortName": "Footsteps\\Mud\\Cha_Footstep_3D_Mud_Large_4.wav",
        "Path": "SFX\\Footsteps\\Mud\\Cha_Footstep_3D_Mud_Large_4_10C4C929.wem"
       },
       {
        "Id": "479241788",
        "Language": "SFX",
        "ShortName": "Footsteps\\Rock\\Cha_Footstep_3D_Rock_Wet_8.wav",
        "Path": "SFX\\Footsteps\\Rock\\Cha_Footstep_3D_Rock_Wet_8_10C4C929.wem"
       },
       {
        "Id": "486767809",
        "Language": "SFX",
        "ShortName": "Footsteps\\Grass\\Cha_Footstep_3D_Grass_9.wav",
        "Path": "SFX\\Footsteps\\Grass\\Cha_Footstep_3D_Grass_9_CC72CEBD.wem"
       },
       {
        "Id": "487090990",
        "Language": "SFX",
        "ShortName": "Footsteps\\Snow\\Cha_Footstep_3D_Snowfield_2.wav",
        "Path": "SFX\\Footsteps\\Snow\\Cha_Footstep_3D_Snowfield_2_10C4C929.wem"
       },
       {
        "Id": "489511737",
        "Language": "SFX",
        "ShortName": "Footsteps\\Soil\\Cha_Footstep_3D_Soil_7.wav",
        "Path": "SFX\\Footsteps\\Soil\\Cha_Footstep_3D_Soil_7_F7C17863.wem"
       },
       {
        "Id": "500120303",
        "Language": "SFX",
        "ShortName": "Footsteps\\Snow\\Cha_Footstep_3D_Snowfield_8.wav",
        "Path": "SFX\\Footsteps\\Snow\\Cha_Footstep_3D_Snowfield_8_10C4C929.wem"
       },
       {
        "Id": "534402412",
        "Language": "SFX",
        "ShortName": "Footsteps\\Rock\\Cha_Footstep_3D_Rock_8.wav",
        "Path": "SFX\\Footsteps\\Rock\\Cha_Footstep_3D_Rock_8_10C4C929.wem"
       },
       {
        "Id": "542573246",
        "Language": "SFX",
        "ShortName": "Footsteps\\Wood\\Cha_Footstep_3D_Wood_8.wav",
        "Path": "SFX\\Footsteps\\Wood\\Cha_Footstep_3D_Wood_8_10C4C929.wem"
       },
       {
        "Id": "567425727",
        "Language": "SFX",
        "ShortName": "Footsteps\\Grass\\Cha_Footstep_3D_Grass_2.wav",
        "Path": "SFX\\Footsteps\\Grass\\Cha_Footstep_3D_Grass_2_CC72CEBD.wem"
       },
       {
        "Id": "588120276",
        "Language": "SFX",
        "ShortName": "Footsteps\\Mud\\Cha_Footstep_3D_Mud_Medium_5.wav",
        "Path": "SFX\\Footsteps\\Mud\\Cha_Footstep_3D_Mud_Medium_5_10C4C929.wem"
       },
       {
        "Id": "617210937",
        "Language": "SFX",
        "ShortName": "Footsteps\\Rock\\Cha_Footstep_3D_Rock_Wet_5.wav",
        "Path": "SFX\\Footsteps\\Rock\\Cha_Footstep_3D_Rock_Wet_5_10C4C929.wem"
       },
       {
        "Id": "639377936",
        "Language": "SFX",
        "ShortName": "Footsteps\\Mud\\Cha_Footstep_3D_Mud_Medium_1.wav",
        "Path": "SFX\\Footsteps\\Mud\\Cha_Footstep_3D_Mud_Medium_1_10C4C929.wem"
       },
       {
        "Id": "639769939",
        "Language": "SFX",
        "ShortName": "Footsteps\\Rock\\Cha_Footstep_3D_Rock_Wet_1.wav",
        "Path": "SFX\\Footsteps\\Rock\\Cha_Footstep_3D_Rock_Wet_1_10C4C929.wem"
       },
       {
        "Id": "645481922",
        "Language": "SFX",
        "ShortName": "Footsteps\\Grass\\Cha_Footstep_3D_Grass_6.wav",
        "Path": "SFX\\Footsteps\\Grass\\Cha_Footstep_3D_Grass_6_CC72CEBD.wem"
       },
       {
        "Id": "648358131",
        "Language": "SFX",
        "ShortName": "Footsteps\\Rock\\Cha_Footstep_3D_Rock_2.wav",
        "Path": "SFX\\Footsteps\\Rock\\Cha_Footstep_3D_Rock_2_10C4C929.wem"
       },
       {
        "Id": "667910791",
        "Language": "SFX",
        "ShortName": "Footsteps\\Water\\Cha_Footstep_3D_Wet_Water_5.wav",
        "Path": "SFX\\Footsteps\\Water\\Cha_Footstep_3D_Wet_Water_5_10C4C929.wem"
       },
       {
        "Id": "670815995",
        "Language": "SFX",
        "ShortName": "Footsteps\\Mud\\Cha_Footstep_3D_Mud_Large_5.wav",
        "Path": "SFX\\Footsteps\\Mud\\Cha_Footstep_3D_Mud_Large_5_10C4C929.wem"
       },
       {
        "Id": "673100033",
        "Language": "SFX",
        "ShortName": "Footsteps\\Grass\\Cha_Footstep_3D_Grass_Wet_1.wav",
        "Path": "SFX\\Footsteps\\Grass\\Cha_Footstep_3D_Grass_Wet_1_10C4C929.wem"
       },
       {
        "Id": "674160371",
        "Language": "SFX",
        "ShortName": "Footsteps\\Wood\\Cha_Footstep_3D_Wood_4.wav",
        "Path": "SFX\\Footsteps\\Wood\\Cha_Footstep_3D_Wood_4_10C4C929.wem"
       },
       {
        "Id": "706366382",
        "Language": "SFX",
        "ShortName": "Footsteps\\Rock\\Cha_Footstep_3D_Rock_Wet_7.wav",
        "Path": "SFX\\Footsteps\\Rock\\Cha_Footstep_3D_Rock_Wet_7_10C4C929.wem"
       },
       {
        "Id": "707492271",
        "Language": "SFX",
        "ShortName": "Footsteps\\Rock\\Cha_Footstep_3D_Rock_1.wav",
        "Path": "SFX\\Footsteps\\Rock\\Cha_Footstep_3D_Rock_1_10C4C929.wem"
       },
       {
        "Id": "707658961",
        "Language": "SFX",
        "ShortName": "Footsteps\\Mud\\Cha_Footstep_3D_Mud_Large_1.wav",
        "Path": "SFX\\Footsteps\\Mud\\Cha_Footstep_3D_Mud_Large_1_10C4C929.wem"
       },
       {
        "Id": "708964156",
        "Language": "SFX",
        "ShortName": "Footsteps\\Soil\\Cha_Footstep_3D_Soil_5.wav",
        "Path": "SFX\\Footsteps\\Soil\\Cha_Footstep_3D_Soil_5_F7C17863.wem"
       },
       {
        "Id": "712987237",
        "Language": "SFX",
        "ShortName": "Footsteps\\Grass\\Cha_Footstep_3D_Grass_7.wav",
        "Path": "SFX\\Footsteps\\Grass\\Cha_Footstep_3D_Grass_7_CC72CEBD.wem"
       },
       {
        "Id": "750934346",
        "Language": "SFX",
        "ShortName": "Footsteps\\Grass\\Cha_Footstep_3D_Grass_Wet_9.wav",
        "Path": "SFX\\Footsteps\\Grass\\Cha_Footstep_3D_Grass_Wet_9_10C4C929.wem"
       },
       {
        "Id": "757439717",
        "Language": "SFX",
        "ShortName": "Footsteps\\Rock\\Cha_Footstep_3D_Rock_Wet_2.wav",
        "Path": "SFX\\Footsteps\\Rock\\Cha_Footstep_3D_Rock_Wet_2_10C4C929.wem"
       },
       {
        "Id": "762406135",
        "Language": "SFX",
        "ShortName": "Footsteps\\Grass\\Cha_Footstep_3D_Grass_3.wav",
        "Path": "SFX\\Footsteps\\Grass\\Cha_Footstep_3D_Grass_3_CC72CEBD.wem"
       },
       {
        "Id": "769348043",
        "Language": "SFX",
        "ShortName": "Footsteps\\Mud\\Cha_Footstep_3D_Mud_Large_7.wav",
        "Path": "SFX\\Footsteps\\Mud\\Cha_Footstep_3D_Mud_Large_7_10C4C929.wem"
       },
       {
        "Id": "780183651",
        "Language": "SFX",
        "ShortName": "Footsteps\\Snow\\Cha_Footstep_3D_Snowfield_4.wav",
        "Path": "SFX\\Footsteps\\Snow\\Cha_Footstep_3D_Snowfield_4_10C4C929.wem"
       },
       {
        "Id": "804379084",
        "Language": "SFX",
        "ShortName": "Footsteps\\Grass\\Cha_Footstep_3D_Grass_8.wav",
        "Path": "SFX\\Footsteps\\Grass\\Cha_Footstep_3D_Grass_8_CC72CEBD.wem"
       },
       {
        "Id": "816529048",
        "Language": "SFX",
        "ShortName": "Footsteps\\Rock\\Cha_Footstep_3D_Rock_Wet_6.wav",
        "Path": "SFX\\Footsteps\\Rock\\Cha_Footstep_3D_Rock_Wet_6_10C4C929.wem"
       },
       {
        "Id": "831302970",
        "Language": "SFX",
        "ShortName": "Footsteps\\Mud\\Cha_Footstep_3D_Mud_Large_3.wav",
        "Path": "SFX\\Footsteps\\Mud\\Cha_Footstep_3D_Mud_Large_3_10C4C929.wem"
       },
       {
        "Id": "852910273",
        "Language": "SFX",
        "ShortName": "Footsteps\\Grass\\Cha_Footstep_3D_Grass_Wet_3.wav",
        "Path": "SFX\\Footsteps\\Grass\\Cha_Footstep_3D_Grass_Wet_3_10C4C929.wem"
       },
       {
        "Id": "855491878",
        "Language": "SFX",
        "ShortName": "Footsteps\\Mud\\Cha_Footstep_3D_Mud_Small_7.wav",
        "Path": "SFX\\Footsteps\\Mud\\Cha_Footstep_3D_Mud_Small_7_10C4C929.wem"
       },
       {
        "Id": "859552197",
        "Language": "SFX",
        "ShortName": "Footsteps\\Grass\\Cha_Footstep_3D_Grass_Wet_7.wav",
        "Path": "SFX\\Footsteps\\Grass\\Cha_Footstep_3D_Grass_Wet_7_10C4C929.wem"
       },
       {
        "Id": "861657594",
        "Language": "SFX",
        "ShortName": "Footsteps\\Grass\\Cha_Footstep_3D_Grass_Wet_2.wav",
        "Path": "SFX\\Footsteps\\Grass\\Cha_Footstep_3D_Grass_Wet_2_10C4C929.wem"
       },
       {
        "Id": "864859209",
        "Language": "SFX",
        "ShortName": "Footsteps\\Mud\\Cha_Footstep_3D_Mud_Small_4.wav",
        "Path": "SFX\\Footsteps\\Mud\\Cha_Footstep_3D_Mud_Small_4_10C4C929.wem"
       },
       {
        "Id": "873467644",
        "Language": "SFX",
        "ShortName": "Footsteps\\Mud\\Cha_Footstep_3D_Mud_Medium_2.wav",
        "Path": "SFX\\Footsteps\\Mud\\Cha_Footstep_3D_Mud_Medium_2_10C4C929.wem"
       },
       {
        "Id": "884870946",
        "Language": "SFX",
        "ShortName": "Footsteps\\Wood\\Cha_Footstep_3D_Wood_7.wav",
        "Path": "SFX\\Footsteps\\Wood\\Cha_Footstep_3D_Wood_7_10C4C929.wem"
       },
       {
        "Id": "915116003",
        "Language": "SFX",
        "ShortName": "Footsteps\\Rock\\Cha_Footstep_3D_Rock_7.wav",
        "Path": "SFX\\Footsteps\\Rock\\Cha_Footstep_3D_Rock_7_10C4C929.wem"
       },
       {
        "Id": "917337748",
        "Language": "SFX",
        "ShortName": "Footsteps\\Mud\\Cha_Footstep_3D_Mud_Small_5.wav",
        "Path": "SFX\\Footsteps\\Mud\\Cha_Footstep_3D_Mud_Small_5_10C4C929.wem"
       },
       {
        "Id": "918798812",
        "Language": "SFX",
        "ShortName": "Footsteps\\Wood\\Cha_Footstep_3D_Wood_9.wav",
        "Path": "SFX\\Footsteps\\Wood\\Cha_Footstep_3D_Wood_9_10C4C929.wem"
       },
       {
        "Id": "935392871",
        "Language": "SFX",
        "ShortName": "Footsteps\\Rock\\Cha_Footstep_3D_Rock_4.wav",
        "Path": "SFX\\Footsteps\\Rock\\Cha_Footstep_3D_Rock_4_10C4C929.wem"
       },
       {
        "Id": "946767860",
        "Language": "SFX",
        "ShortName": "Footsteps\\Soil\\Cha_Footstep_3D_Soil_3.wav",
        "Path": "SFX\\Footsteps\\Soil\\Cha_Footstep_3D_Soil_3_F7C17863.wem"
       },
       {
        "Id": "958080964",
        "Language": "SFX",
        "ShortName": "Footsteps\\Wood\\Cha_Footstep_3D_Wood_3.wav",
        "Path": "SFX\\Footsteps\\Wood\\Cha_Footstep_3D_Wood_3_10C4C929.wem"
       },
       {
        "Id": "958727511",
        "Language": "SFX",
        "ShortName": "Footsteps\\Grass\\Cha_Footstep_3D_Grass_Wet_8.wav",
        "Path": "SFX\\Footsteps\\Grass\\Cha_Footstep_3D_Grass_Wet_8_10C4C929.wem"
       },
       {
        "Id": "976981577",
        "Language": "SFX",
        "ShortName": "Footsteps\\Wood\\Cha_Footstep_3D_Wood_5.wav",
        "Path": "SFX\\Footsteps\\Wood\\Cha_Footstep_3D_Wood_5_10C4C929.wem"
       },
       {
        "Id": "993786753",
        "Language": "SFX",
        "ShortName": "Footsteps\\Wood\\Cha_Footstep_3D_Wood_Wet_4.wav",
        "Path": "SFX\\Footsteps\\Wood\\Cha_Footstep_3D_Wood_Wet_4_10C4C929.wem"
       },
       {
        "Id": "1007305120",
        "Language": "SFX",
        "ShortName": "Footsteps\\Wood\\Cha_Footstep_3D_Wood_Wet_9.wav",
        "Path": "SFX\\Footsteps\\Wood\\Cha_Footstep_3D_Wood_Wet_9_10C4C929.wem"
       },
       {
        "Id": "1008307145",
        "Language": "SFX",
        "ShortName": "Footsteps\\Rock\\Cha_Footstep_3D_Rock_Wet_3.wav",
        "Path": "SFX\\Footsteps\\Rock\\Cha_Footstep_3D_Rock_Wet_3_10C4C929.wem"
       },
       {
        "Id": "1017673955",
        "Language": "SFX",
        "ShortName": "Footsteps\\Mud\\Cha_Footstep_3D_Mud_Medium_6.wav",
        "Path": "SFX\\Footsteps\\Mud\\Cha_Footstep_3D_Mud_Medium_6_10C4C929.wem"
       },
       {
        "Id": "1020125925",
        "Language": "SFX",
        "ShortName": "Footsteps\\Rock\\Cha_Footstep_3D_Rock_Wet_9.wav",
        "Path": "SFX\\Footsteps\\Rock\\Cha_Footstep_3D_Rock_Wet_9_10C4C929.wem"
       },
       {
        "Id": "1023745876",
        "Language": "SFX",
        "ShortName": "Footsteps\\Water\\Cha_Footstep_3D_Wet_Water_8.wav",
        "Path": "SFX\\Footsteps\\Water\\Cha_Footstep_3D_Wet_Water_8_10C4C929.wem"
       },
       {
        "Id": "1046908372",
        "Language": "SFX",
        "ShortName": "Footsteps\\Mud\\Cha_Footstep_3D_Mud_Medium_3.wav",
        "Path": "SFX\\Footsteps\\Mud\\Cha_Footstep_3D_Mud_Medium_3_10C4C929.wem"
       },
       {
        "Id": "1060387967",
        "Language": "SFX",
        "ShortName": "Footsteps\\Mud\\Cha_Footstep_3D_Mud_Small_8.wav",
        "Path": "SFX\\Footsteps\\Mud\\Cha_Footstep_3D_Mud_Small_8_10C4C929.wem"
       },
       {
        "Id": "1066643182",
        "Language": "SFX",
        "ShortName": "Footsteps\\Wood\\Cha_Footstep_3D_Wood_Wet_6.wav",
        "Path": "SFX\\Footsteps\\Wood\\Cha_Footstep_3D_Wood_Wet_6_10C4C929.wem"
       },
       {
        "Id": "1068715605",
        "Language": "SFX",
        "ShortName": "Footsteps\\Snow\\Cha_Footstep_3D_Snowfield_6.wav",
        "Path": "SFX\\Footsteps\\Snow\\Cha_Footstep_3D_Snowfield_6_10C4C929.wem"
       },
       {
        "Id": "1071866150",
        "Language": "SFX",
        "ShortName": "Footsteps\\Water\\Cha_Footstep_3D_Wet_Water_7.wav",
        "Path": "SFX\\Footsteps\\Water\\Cha_Footstep_3D_Wet_Water_7_10C4C929.wem"
       }
      ],
      "DefaultSwitchValue": "{F5C798A9-9A4B-45F6-99AC-37797139B781}",
      "SwitchContainers": [
       {
        "SwitchValue": "{5864FB4A-6069-4710-9C1D-C58910DB509A}",
        "DefaultSwitchValue": "{ADC036C8-DEE4-46A9-8C3A-54406372B701}",
        "Children": [
         {
          "SwitchValue": "{74347F2F-1CF5-46B3-8B1D-E9399936FE02}",
          "Media": [
           {
            "Id": "279818021"
           },
           {
            "Id": "479241788"
           },
           {
            "Id": "617210937"
           },
           {
            "Id": "639769939"
           },
           {
            "Id": "706366382"
           },
           {
            "Id": "757439717"
           },
           {
            "Id": "816529048"
           },
           {
            "Id": "1008307145"
           },
           {
            "Id": "1020125925"
           }
          ]
         },
         {
          "SwitchValue": "{0B36F148-007A-40DA-A0C3-F6D5A7C3C9D5}",
          "Media": [
           {
            "Id": "120805727"
           },
           {
            "Id": "162414375"
           },
           {
            "Id": "588120276"
           },
           {
            "Id": "639377936"
           },
           {
            "Id": "873467644"
           },
           {
            "Id": "1017673955"
           },
           {
            "Id": "1046908372"
           }
          ]
         },
         {
          "SwitchValue": "{D2664768-44DA-4717-B3F6-C321D3B84750}",
          "Media": [
           {
            "Id": "335493555"
           },
           {
            "Id": "422373382"
           },
           {
            "Id": "465296459"
           },
           {
            "Id": "670815995"
           },
           {
            "Id": "707658961"
           },
           {
            "Id": "769348043"
           },
           {
            "Id": "831302970"
           }
          ]
         },
         {
          "SwitchValue": "{D4998B78-D658-42D0-A30A-1EE6EB9068AB}",
          "Media": [
           {
            "Id": "44927039"
           },
           {
            "Id": "47019750"
           },
           {
            "Id": "140633938"
           },
           {
            "Id": "196878143"
           },
           {
            "Id": "287313070"
           },
           {
            "Id": "411688919"
           },
           {
            "Id": "667910791"
           },
           {
            "Id": "1023745876"
           },
           {
            "Id": "1071866150"
           }
          ]
         },
         {
          "SwitchValue": "{726B0484-8E27-4416-B2DA-6F47BCF86ED2}",
          "Media": [
           {
            "Id": "265021882"
           },
           {
            "Id": "298043907"
           },
           {
            "Id": "416131546"
           },
           {
            "Id": "421050162"
           },
           {
            "Id": "855491878"
           },
           {
            "Id": "864859209"
           },
           {
            "Id": "917337748"
           },
           {
            "Id": "1060387967"
           }
          ]
         },
         {
          "SwitchValue": "{8E7812B9-3349-4F40-87F0-4E72EAA3EB9C}",
          "Media": [
           {
            "Id": "74700121"
           },
           {
            "Id": "142072487"
           },
           {
            "Id": "186014928"
           },
           {
            "Id": "225906957"
           },
           {
            "Id": "319396873"
           },
           {
            "Id": "461827102"
           },
           {
            "Id": "993786753"
           },
           {
            "Id": "1007305120"
           },
           {
            "Id": "1066643182"
           }
          ]
         },
         {
          "SwitchValue": "{ADC036C8-DEE4-46A9-8C3A-54406372B701}",
          "Media": [
           {
            "Id": "150319688"
           },
           {
            "Id": "165914578"
           },
           {
            "Id": "365286474"
           },
           {
            "Id": "673100033"
           },
           {
            "Id": "750934346"
           },
           {
            "Id": "852910273"
           },
           {
            "Id": "859552197"
           },
           {
            "Id": "861657594"
           },
           {
            "Id": "958727511"
           }
          ]
         },
         {
          "SwitchValue": "{0C5BC6CF-5A4C-4D13-A703-652B37D856C7}",
          "Media": [
           {
            "Id": "67354494"
           },
           {
            "Id": "88736064"
           },
           {
            "Id": "93030086"
           },
           {
            "Id": "308919095"
           },
           {
            "Id": "442835647"
           },
           {
            "Id": "487090990"
           },
           {
            "Id": "500120303"
           },
           {
            "Id": "780183651"
           },
           {
            "Id": "1068715605"
           }
          ]
         },
         {
          "SwitchValue": "{A71F8FE9-391A-4452-A83C-D988B809542C}",
          "Media": [
           {
            "Id": "265021882"
           },
           {
            "Id": "298043907"
           },
           {
            "Id": "416131546"
           },
           {
            "Id": "421050162"
           },
           {
            "Id": "855491878"
           },
           {
            "Id": "864859209"
           },
           {
            "Id": "917337748"
           },
           {
            "Id": "1060387967"
           }
          ]
         }
        ]
       },
       {
        "SwitchValue": "{F5C798A9-9A4B-45F6-99AC-37797139B781}",
        "DefaultSwitchValue": "{ADC036C8-DEE4-46A9-8C3A-54406372B701}",
        "Children": [
         {
          "SwitchValue": "{74347F2F-1CF5-46B3-8B1D-E9399936FE02}",
          "Media": [
           {
            "Id": "30744803"
           },
           {
            "Id": "161147129"
           },
           {
            "Id": "191912322"
           },
           {
            "Id": "364900233"
           },
           {
            "Id": "534402412"
           },
           {
            "Id": "648358131"
           },
           {
            "Id": "707492271"
           },
           {
            "Id": "915116003"
           },
           {
            "Id": "935392871"
           }
          ]
         },
         {
          "SwitchValue": "{0B36F148-007A-40DA-A0C3-F6D5A7C3C9D5}",
          "Media": [
           {
            "Id": "120805727"
           },
           {
            "Id": "162414375"
           },
           {
            "Id": "588120276"
           },
           {
            "Id": "639377936"
           },
           {
            "Id": "873467644"
           },
           {
            "Id": "1017673955"
           },
           {
            "Id": "1046908372"
           }
          ]
         },
         {
          "SwitchValue": "{D2664768-44DA-4717-B3F6-C321D3B84750}",
          "Media": [
           {
            "Id": "335493555"
           },
           {
            "Id": "422373382"
           },
           {
            "Id": "465296459"
           },
           {
            "Id": "670815995"
           },
           {
            "Id": "707658961"
           },
           {
            "Id": "769348043"
           },
           {
            "Id": "831302970"
           }
          ]
         },
         {
          "SwitchValue": "{D4998B78-D658-42D0-A30A-1EE6EB9068AB}",
          "Media": [
           {
            "Id": "44927039"
           },
           {
            "Id": "47019750"
           },
           {
            "Id": "140633938"
           },
           {
            "Id": "196878143"
           },
           {
            "Id": "287313070"
           },
           {
            "Id": "411688919"
           },
           {
            "Id": "667910791"
           },
           {
            "Id": "1023745876"
           },
           {
            "Id": "1071866150"
           }
          ]
         },
         {
          "SwitchValue": "{726B0484-8E27-4416-B2DA-6F47BCF86ED2}",
          "Media": [
           {
            "Id": "265021882"
           },
           {
            "Id": "298043907"
           },
           {
            "Id": "416131546"
           },
           {
            "Id": "421050162"
           },
           {
            "Id": "855491878"
           },
           {
            "Id": "864859209"
           },
           {
            "Id": "917337748"
           },
           {
            "Id": "1060387967"
           }
          ]
         },
         {
          "SwitchValue": "{8E7812B9-3349-4F40-87F0-4E72EAA3EB9C}",
          "Media": [
           {
            "Id": "88480680"
           },
           {
            "Id": "235985635"
           },
           {
            "Id": "380468292"
           },
           {
            "Id": "542573246"
           },
           {
            "Id": "674160371"
           },
           {
            "Id": "884870946"
           },
           {
            "Id": "918798812"
           },
           {
            "Id": "958080964"
           },
           {
            "Id": "976981577"
           }
          ]
         },
         {
          "SwitchValue": "{ADC036C8-DEE4-46A9-8C3A-54406372B701}",
          "Media": [
           {
            "Id": "88856938"
           },
           {
            "Id": "143074206"
           },
           {
            "Id": "377019966"
           },
           {
            "Id": "486767809"
           },
           {
            "Id": "567425727"
           },
           {
            "Id": "645481922"
           },
           {
            "Id": "712987237"
           },
           {
            "Id": "762406135"
           },
           {
            "Id": "804379084"
           }
          ]
         },
         {
          "SwitchValue": "{0C5BC6CF-5A4C-4D13-A703-652B37D856C7}",
          "Media": [
           {
            "Id": "67354494"
           },
           {
            "Id": "88736064"
           },
           {
            "Id": "93030086"
           },
           {
            "Id": "308919095"
           },
           {
            "Id": "442835647"
           },
           {
            "Id": "487090990"
           },
           {
            "Id": "500120303"
           },
           {
            "Id": "780183651"
           },
           {
            "Id": "1068715605"
           }
          ]
         },
         {
          "SwitchValue": "{A71F8FE9-391A-4452-A83C-D988B809542C}",
          "Media": [
           {
            "Id": "2973470"
           },
           {
            "Id": "31957574"
           },
           {
            "Id": "91485776"
           },
           {
            "Id": "101885676"
           },
           {
            "Id": "141654618"
           },
           {
            "Id": "275314753"
           },
           {
            "Id": "489511737"
           },
           {
            "Id": "708964156"
           },
           {
            "Id": "946767860"
           }
          ]
         }
        ]
       }
      ]
     },
     {
      "Id": "2361012914",
      "Name": "Play_WWater_fall",
      "ObjectPath": "\\Events\\Default Work Unit\\Play_WWater_fall",
      "GUID": "{94018E9E-358B-4F30-8A53-AE4DB37429E9}",
      "MaxAttenuation": "5000.",
      "DurationType": "Infinite",
      "IncludedMemoryFiles": [
       {
        "Id": "766890795",
        "Language": "SFX",
        "ShortName": "AMB\\3D\\AMB_Waterfall_SoClose.wav",
        "Path": "SFX\\AMB\\3D\\AMB_Waterfall_SoClose_CB056212.wem"
       },
       {
        "Id": "925814727",
        "Language": "SFX",
        "ShortName": "AMB\\3D\\AMB_Waterfall_Close.wav",
        "Path": "SFX\\AMB\\3D\\AMB_Waterfall_Close_CB056212.wem"
       },
       {
        "Id": "945475681",
        "Language": "SFX",
        "ShortName": "AMB\\3D\\AMB_Waterfall_Faraway.wav",
        "Path": "SFX\\AMB\\3D\\AMB_Waterfall_Faraway_CB056212.wem"
       }
      ]
     }
    ],
    "GameParameters": [
     {
      "Id": "207908541",
      "Name": "Time_of_Day",
      "ObjectPath": "\\Game Parameters\\Default Work Unit\\Time_of_Day",
      "GUID": "{4D4DF8E6-550F-493A-8112-7E72922E682B}"
     },
     {
      "Id": "3013689224",
      "Name": "BonfireGuitar",
      "ObjectPath": "\\Game Parameters\\Default Work Unit\\BonfireGuitar",
      "GUID": "{C80A0EC5-95B6-4844-8918-9C5F503A8050}"
     },
     {
      "Id": "3131318980",
      "Name": "Waterfall_dist",
      "ObjectPath": "\\Game Parameters\\Default Work Unit\\Waterfall_dist",
      "GUID": "{FF7BF17E-9C62-4128-879B-EE2FD13C4BFA}"
     }
    ],
    "StateGroups": [
     {
      "Id": "336034893",
      "Name": "Weather_state",
      "ObjectPath": "\\States\\Default Work Unit\\Weather_state",
      "GUID": "{F02B9156-0213-4F7A-9B17-FE5F607B671E}",
      "States": [
       {
        "Id": "748895195",
        "Name": "None",
        "ObjectPath": "\\States\\Default Work Unit\\Weather_state\\None",
        "GUID": "{4765ED54-8162-4E59-BA25-73D149B4E7C5}"
       },
       {
        "Id": "2043403999",
        "Name": "Rain",
        "ObjectPath": "\\States\\Default Work Unit\\Weather_state\\Rain",
        "GUID": "{BCF303BE-3023-4A4B-B632-B9B4430FB107}"
       },
       {
        "Id": "787898836",
        "Name": "Snow",
        "ObjectPath": "\\States\\Default Work Unit\\Weather_state\\Snow",
        "GUID": "{42250AB2-8BA4-4C75-B252-1F6A56EAC6E6}"
       },
       {
        "Id": "3569642402",
        "Name": "Sunny",
        "ObjectPath": "\\States\\Default Work Unit\\Weather_state\\Sunny",
        "GUID": "{FE2598E8-F0A0-409F-8FF2-9985863DCFEE}"
       }
      ]
     },
     {
      "Id": "581289165",
      "Name": "Weather_footsteps_state",
      "ObjectPath": "\\States\\Default Work Unit\\Weather_footsteps_state",
      "GUID": "{F9768D66-79DD-4A95-A03C-267A5223D0B9}",
      "States": [
       {
        "Id": "748895195",
        "Name": "None",
        "ObjectPath": "\\States\\Default Work Unit\\Weather_footsteps_state\\None",
        "GUID": "{C9FD0586-0E75-49B1-AA58-C2EF15DD979E}"
       },
       {
        "Id": "3569642402",
        "Name": "Sunny",
        "ObjectPath": "\\States\\Default Work Unit\\Weather_footsteps_state\\Sunny",
        "GUID": "{F5C798A9-9A4B-45F6-99AC-37797139B781}"
       },
       {
        "Id": "2043403999",
        "Name": "Rain",
        "ObjectPath": "\\States\\Default Work Unit\\Weather_footsteps_state\\Rain",
        "GUID": "{5864FB4A-6069-4710-9C1D-C58910DB509A}"
       }
      ]
     }
    ],
    "SwitchGroups": [
     {
      "Id": "516056907",
      "Name": "Rain_Snow_Music",
      "ObjectPath": "\\Switches\\Default Work Unit\\MUSIC\\Rain_Snow_Music",
      "GUID": "{BD2FE95A-89E6-4E55-965D-2E1E68FE1236}",
      "Switches": [
       {
        "Id": "1011622525",
        "Name": "Night",
        "ObjectPath": "\\Switches\\Default Work Unit\\MUSIC\\Rain_Snow_Music\\Night",
        "GUID": "{97FC9EA3-AE72-4476-9166-8A4AFCB13996}"
       },
       {
        "Id": "311764537",
        "Name": "Day",
        "ObjectPath": "\\Switches\\Default Work Unit\\MUSIC\\Rain_Snow_Music\\Day",
        "GUID": "{E2F8F345-5B91-4C08-97F6-558D93D435C7}"
       }
      ]
     },
     {
      "Id": "1190401426",
      "Name": "Bonfire_Music",
      "ObjectPath": "\\Switches\\Default Work Unit\\MUSIC\\Bonfire_Music",
      "GUID": "{3657D194-437C-424F-AC21-8134BD1A769D}",
      "Switches": [
       {
        "Id": "1651971902",
        "Name": "ON",
        "ObjectPath": "\\Switches\\Default Work Unit\\MUSIC\\Bonfire_Music\\ON",
        "GUID": "{96127023-DDAE-4D88-A4E1-358CB600204E}"
       },
       {
        "Id": "930712164",
        "Name": "OFF",
        "ObjectPath": "\\Switches\\Default Work Unit\\MUSIC\\Bonfire_Music\\OFF",
        "GUID": "{ED850EA7-CFA1-4D6B-B269-FFEB471A097C}"
       }
      ]
     },
     {
      "Id": "1480734285",
      "Name": "Drum_Music",
      "ObjectPath": "\\Switches\\Default Work Unit\\MUSIC\\Drum_Music",
      "GUID": "{0DF7B564-5FF7-4A2A-8C68-585A2F43D66A}",
      "Switches": [
       {
        "Id": "1651971895",
        "Name": "OG",
        "ObjectPath": "\\Switches\\Default Work Unit\\MUSIC\\Drum_Music\\OG",
        "GUID": "{1AAA45EA-F7D8-4FC8-9900-EB6D064E4F1C}"
       },
       {
        "Id": "3456720658",
        "Name": "Bonfire",
        "ObjectPath": "\\Switches\\Default Work Unit\\MUSIC\\Drum_Music\\Bonfire",
        "GUID": "{6C74D8D1-F0AD-4F79-8745-48DC2A1FE9CE}"
       }
      ]
     },
     {
      "Id": "1834394558",
      "Name": "Surface",
      "ObjectPath": "\\Switches\\Default Work Unit\\SFX\\Surface_Footeps\\Surface",
      "GUID": "{6C04F035-DA96-441F-BB5C-604B42386C8D}",
      "Switches": [
       {
        "Id": "4248645337",
        "Name": "Grass",
        "ObjectPath": "\\Switches\\Default Work Unit\\SFX\\Surface_Footeps\\Surface\\Grass",
        "GUID": "{ADC036C8-DEE4-46A9-8C3A-54406372B701}"
       },
       {
        "Id": "2144363834",
        "Name": "Rock",
        "ObjectPath": "\\Switches\\Default Work Unit\\SFX\\Surface_Footeps\\Surface\\Rock",
        "GUID": "{74347F2F-1CF5-46B3-8B1D-E9399936FE02}"
       },
       {
        "Id": "2608136448",
        "Name": "Snowfield",
        "ObjectPath": "\\Switches\\Default Work Unit\\SFX\\Surface_Footeps\\Surface\\Snowfield",
        "GUID": "{0C5BC6CF-5A4C-4D13-A703-652B37D856C7}"
       },
       {
        "Id": "2058049674",
        "Name": "Wood",
        "ObjectPath": "\\Switches\\Default Work Unit\\SFX\\Surface_Footeps\\Surface\\Wood",
        "GUID": "{8E7812B9-3349-4F40-87F0-4E72EAA3EB9C}"
       },
       {
        "Id": "2654748154",
        "Name": "Water",
        "ObjectPath": "\\Switches\\Default Work Unit\\SFX\\Surface_Footeps\\Surface\\Water",
        "GUID": "{D4998B78-D658-42D0-A30A-1EE6EB9068AB}"
       },
       {
        "Id": "1511419717",
        "Name": "Mud_Small",
        "ObjectPath": "\\Switches\\Default Work Unit\\SFX\\Surface_Footeps\\Surface\\Mud_Small",
        "GUID": "{726B0484-8E27-4416-B2DA-6F47BCF86ED2}"
       },
       {
        "Id": "3163737933",
        "Name": "Mud_Medium",
        "ObjectPath": "\\Switches\\Default Work Unit\\SFX\\Surface_Footeps\\Surface\\Mud_Medium",
        "GUID": "{0B36F148-007A-40DA-A0C3-F6D5A7C3C9D5}"
       },
       {
        "Id": "3632317997",
        "Name": "Mud_Large",
        "ObjectPath": "\\Switches\\Default Work Unit\\SFX\\Surface_Footeps\\Surface\\Mud_Large",
        "GUID": "{D2664768-44DA-4717-B3F6-C321D3B84750}"
       },
       {
        "Id": "687380132",
        "Name": "Soil",
        "ObjectPath": "\\Switches\\Default Work Unit\\SFX\\Surface_Footeps\\Surface\\Soil",
        "GUID": "{A71F8FE9-391A-4452-A83C-D988B809542C}"
       }
      ]
     }
    ],
    "Triggers": [
     {
      "Id": "712897245",
      "Name": "Mud",
      "ObjectPath": "\\Triggers\\Default Work Unit\\Mud",
      "GUID": "{C18CB618-E150-4F63-BA42-934F3C29CD74}"
     }
    ]
   }
  ]
 }
}